HERLOA/k8/HERLOAk8_waveform.vcd
$date
	Mon Nov 18 21:56:19 2024
$end
$version
	Icarus Verilog
$end
$timescale
	1s
$end
$scope module HERLOA_tb $end
$scope module uut $end
$var wire 16 ! A [15:0] $end
$var wire 16 " B [15:0] $end
$var wire 1 # cout $end
$var wire 1 $ n_9 $end
$var wire 1 % n_8 $end
$var wire 1 & n_7 $end
$var wire 1 ' n_6 $end
$var wire 1 ( n_5 $end
$var wire 1 ) n_4 $end
$var wire 1 * n_3 $end
$var wire 1 + n_2 $end
$var wire 1 , n_1 $end
$var wire 1 - n_0 $end
$var wire 16 . S [15:0] $end
$var wire 1 / Cin $end
$scope module RCA1 $end
$var wire 1 # Co $end
$var wire 8 0 X [7:0] $end
$var wire 8 1 Y [7:0] $end
$var wire 1 2 n_0 $end
$var wire 7 3 w [6:0] $end
$var wire 8 4 S [7:0] $end
$var wire 1 / Ci $end
$scope module adder_stage[0].genblk1.FA $end
$var wire 1 5 X $end
$var wire 1 6 Y $end
$var wire 1 7 S $end
$var wire 1 8 Co $end
$var wire 1 / Ci $end
$scope module g66__2398 $end
$var wire 1 5 A $end
$var wire 1 6 B $end
$var wire 1 8 CO $end
$var wire 1 7 S $end
$var wire 1 9 \n$1 $end
$var wire 1 : \n$2 $end
$var wire 1 ; \n$3 $end
$var wire 1 / CI $end
$upscope $end
$upscope $end
$scope module adder_stage[1].genblk1.FA $end
$var wire 1 < Ci $end
$var wire 1 = X $end
$var wire 1 > Y $end
$var wire 1 ? S $end
$var wire 1 @ Co $end
$scope module g66__5107 $end
$var wire 1 = A $end
$var wire 1 > B $end
$var wire 1 < CI $end
$var wire 1 @ CO $end
$var wire 1 ? S $end
$var wire 1 A \n$1 $end
$var wire 1 B \n$2 $end
$var wire 1 C \n$3 $end
$upscope $end
$upscope $end
$scope module adder_stage[2].genblk1.FA $end
$var wire 1 D Ci $end
$var wire 1 E X $end
$var wire 1 F Y $end
$var wire 1 G S $end
$var wire 1 H Co $end
$scope module g66__6260 $end
$var wire 1 E A $end
$var wire 1 F B $end
$var wire 1 D CI $end
$var wire 1 H CO $end
$var wire 1 G S $end
$var wire 1 I \n$1 $end
$var wire 1 J \n$2 $end
$var wire 1 K \n$3 $end
$upscope $end
$upscope $end
$scope module adder_stage[3].genblk1.FA $end
$var wire 1 L Ci $end
$var wire 1 M X $end
$var wire 1 N Y $end
$var wire 1 O S $end
$var wire 1 P Co $end
$scope module g66__4319 $end
$var wire 1 M A $end
$var wire 1 N B $end
$var wire 1 L CI $end
$var wire 1 P CO $end
$var wire 1 O S $end
$var wire 1 Q \n$1 $end
$var wire 1 R \n$2 $end
$var wire 1 S \n$3 $end
$upscope $end
$upscope $end
$scope module adder_stage[4].genblk1.FA $end
$var wire 1 T Ci $end
$var wire 1 U X $end
$var wire 1 V Y $end
$var wire 1 W S $end
$var wire 1 X Co $end
$scope module g66__8428 $end
$var wire 1 U A $end
$var wire 1 V B $end
$var wire 1 T CI $end
$var wire 1 X CO $end
$var wire 1 W S $end
$var wire 1 Y \n$1 $end
$var wire 1 Z \n$2 $end
$var wire 1 [ \n$3 $end
$upscope $end
$upscope $end
$scope module adder_stage[5].genblk1.FA $end
$var wire 1 \ Ci $end
$var wire 1 ] X $end
$var wire 1 ^ Y $end
$var wire 1 _ S $end
$var wire 1 ` Co $end
$scope module g66__5526 $end
$var wire 1 ] A $end
$var wire 1 ^ B $end
$var wire 1 \ CI $end
$var wire 1 ` CO $end
$var wire 1 _ S $end
$var wire 1 a \n$1 $end
$var wire 1 b \n$2 $end
$var wire 1 c \n$3 $end
$upscope $end
$upscope $end
$scope module adder_stage[6].genblk1.FA $end
$var wire 1 d Ci $end
$var wire 1 e X $end
$var wire 1 f Y $end
$var wire 1 g S $end
$var wire 1 h Co $end
$scope module g66__6783 $end
$var wire 1 e A $end
$var wire 1 f B $end
$var wire 1 d CI $end
$var wire 1 h CO $end
$var wire 1 g S $end
$var wire 1 i \n$1 $end
$var wire 1 j \n$2 $end
$var wire 1 k \n$3 $end
$upscope $end
$upscope $end
$scope module adder_stage[7].genblk1.FA $end
$var wire 1 l Ci $end
$var wire 1 2 Co $end
$var wire 1 m X $end
$var wire 1 n Y $end
$var wire 1 o n_0 $end
$var wire 1 p S $end
$scope module g37__3680 $end
$var wire 1 l B $end
$var wire 1 p Y $end
$var wire 1 o A $end
$upscope $end
$scope module g38__1617 $end
$var wire 1 n A $end
$var wire 1 m B $end
$var wire 1 o Y $end
$upscope $end
$upscope $end
$upscope $end
$scope module g209__2802 $end
$var wire 1 q Y $end
$var wire 1 $ B $end
$var wire 1 ' A $end
$upscope $end
$scope module g210__1705 $end
$var wire 1 r Y $end
$var wire 1 $ B $end
$var wire 1 - A $end
$upscope $end
$scope module g211__5122 $end
$var wire 1 s Y $end
$var wire 1 $ B $end
$var wire 1 ( A $end
$upscope $end
$scope module g212__8246 $end
$var wire 1 t Y $end
$var wire 1 $ B $end
$var wire 1 + A $end
$upscope $end
$scope module g213__7098 $end
$var wire 1 u Y $end
$var wire 1 $ B $end
$var wire 1 , A $end
$upscope $end
$scope module g214__6131 $end
$var wire 1 v Y $end
$var wire 1 $ B $end
$var wire 1 ) A $end
$upscope $end
$scope module g215__1881 $end
$var wire 1 w A0N $end
$var wire 1 x Y $end
$var wire 1 y \n$1 $end
$var wire 1 z \n$2 $end
$var wire 1 { \n$3 $end
$var wire 1 & B0 $end
$var wire 1 % A1N $end
$upscope $end
$scope module g216__5115 $end
$var wire 1 $ Y $end
$var wire 1 % B $end
$var wire 1 * A $end
$upscope $end
$scope module g217__7482 $end
$var wire 1 | Y $end
$var wire 1 % B $end
$var wire 1 * A $end
$upscope $end
$scope module g218__4733 $end
$var wire 1 } A $end
$var wire 1 ~ B $end
$var wire 1 / CO $end
$var wire 1 % S $end
$upscope $end
$scope module g219__6161 $end
$var wire 1 !" A $end
$var wire 1 "" B $end
$var wire 1 & Y $end
$upscope $end
$scope module g220__9315 $end
$var wire 1 #" A $end
$var wire 1 $" B $end
$var wire 1 ' Y $end
$upscope $end
$scope module g221__9945 $end
$var wire 1 %" A $end
$var wire 1 &" B $end
$var wire 1 ( Y $end
$upscope $end
$scope module g222__2883 $end
$var wire 1 '" A $end
$var wire 1 (" B $end
$var wire 1 ) Y $end
$upscope $end
$scope module g223__2346 $end
$var wire 1 )" A $end
$var wire 1 *" B $end
$var wire 1 + Y $end
$upscope $end
$scope module g224__1666 $end
$var wire 1 +" A $end
$var wire 1 ," B $end
$var wire 1 , Y $end
$upscope $end
$scope module g225__7410 $end
$var wire 1 -" A $end
$var wire 1 ." B $end
$var wire 1 - Y $end
$upscope $end
$scope module g226__6417 $end
$var wire 1 /" A $end
$var wire 1 0" B $end
$var wire 1 * Y $end
$upscope $end
$upscope $end
$upscope $end
$enddefinitions $end
#0
$dumpvars
00"
0/"
0."
0-"
0,"
0+"
0*"
0)"
0("
0'"
0&"
0%"
0$"
0#"
0""
0!"
0~
0}
0|
1{
1z
1y
0x
0w
0v
0u
0t
0s
0r
0q
0p
1o
0n
0m
0l
0k
0j
0i
0h
0g
0f
0e
0d
0c
0b
0a
0`
0_
0^
0]
0\
0[
0Z
0Y
0X
0W
0V
0U
0T
0S
0R
0Q
0P
0O
0N
0M
0L
0K
0J
0I
0H
0G
0F
0E
0D
0C
0B
0A
0@
0?
0>
0=
0<
0;
0:
09
08
07
06
05
b0 4
b0 3
z2
b0 1
b0 0
0/
b0 .
1-
1,
1+
0*
1)
1(
1'
1&
0%
1$
z#
b0 "
b0 !
$end
#10
b1 4
17
1q
1s
1v
1t
1u
1r
b110111111 .
1|
0z
1/
0'
0(
0)
0+
0,
0-
1*
1w
1}
1!"
1#"
1%"
1'"
1)"
1+"
1-"
10"
1~
1""
1$"
1&"
1("
1*"
1,"
1."
1/"
b11111111 "
b11111111 !
#20
1B
1C
1?
1J
1K
1G
1R
1S
1O
1Z
1[
1W
1b
1c
1_
1j
1k
1g
1p
1<
1D
1L
1T
1\
1d
1l
18
1@
1H
1P
1X
1`
b1111111 3
1h
19
1A
1I
1Q
1Y
1a
1i
b11111110 4
07
0q
0s
0v
0t
0u
0r
b1111111000000000 .
0|
16
1>
1F
1N
1V
1^
1f
1n
1z
15
1=
1E
1M
1U
1]
1e
1m
0/
1'
1(
1)
1+
1,
1-
0*
b11111111 1
0w
0}
0!"
0#"
0%"
0'"
0)"
0+"
0-"
00"
b11111111 0
0~
0""
0$"
0&"
0("
0*"
0,"
0."
0/"
b1111111100000000 "
b1111111100000000 !
#30
0l
0h
0j
0d
0`
0c
0\
0X
0Z
0T
0P
0S
0L
0H
0J
0D
0@
0C
0<
1p
b0 3
08
0A
0B
1?
0Q
0R
1O
0a
0b
1_
0o
0y
1x
1v
1t
1r
09
17
0I
0K
1G
0Y
0[
1W
0i
0k
b11111111 4
1g
1|
0{
1q
1s
b1111111111111111 .
1u
0>
0N
0^
0n
0z
0&
0)
0+
0-
05
0E
0U
0e
1%
0'
0(
0,
b1010101 1
1w
1!"
1'"
1)"
1-"
10"
b10101010 0
1~
1$"
1&"
1,"
b101010101010101 "
b1010101010101010 !
#40
1J
1K
1Z
1[
1j
1k
1B
1C
1R
1S
1b
1c
1D
1T
1d
0x
1<
1L
1\
1l
1@
1P
1`
1p
1y
18
1H
1X
b1111111 3
1h
1A
1?
1Q
1O
1a
1_
1o
1:
1{
19
1;
1I
1G
1Y
1W
1i
b1111111110111111 .
b11111111 4
1g
1>
1N
1^
1n
1/
0%
15
1E
1U
1e
1&
1*
b11111111 1
1}
1#"
1%"
1+"
b11111111 0
1""
1("
1*"
1."
1/"
b1111111111111111 "
b1111111111111111 !
#50
0G
0O
0W
0_
0g
0p
0?
0D
0L
0T
0\
0d
0l
0<
0@
0H
0P
0X
0`
0h
b0 3
08
0B
0J
0R
0Z
0b
0j
09
0A
0C
0I
0K
0Q
0S
0Y
0[
0a
0c
0i
0k
b0 4
07
0;
0:
0q
0s
0t
0u
0r
b1 .
0|
06
0>
0F
0N
0V
0^
0f
0n
1z
05
0=
0E
0M
0U
0]
0e
0m
0/
1'
1(
1+
1,
1-
0*
b0 1
0w
0}
0!"
0#"
0%"
0)"
0+"
0-"
00"
b0 0
0~
0""
0$"
0&"
0*"
0,"
0."
0/"
b1 "
b1 !
#60
1p
1G
1O
1g
0o
0y
1|
0{
1x
1t
1u
17
1?
1W
b11111111 4
1_
1q
1s
b1111111111111111 .
1r
1F
1N
1f
1n
0z
1%
0&
0+
0,
15
1=
1U
1]
0'
0(
0-
b11001100 1
1w
1}
1!"
0'"
1)"
1+"
10"
b110011 0
1$"
1&"
1."
b1100110011001100 "
b11001100110011 !
#70
1>
0N
1^
0n
0=
1M
0]
1m
b1100110 1
0}
1#"
1%"
0+"
b10011001 0
1~
0$"
0&"
1,"
b110011001100110 "
b1001100110011001 !
#80
1D
1@
1C
0?
1<
1l
1p
0x
18
b1000011 3
1h
19
1G
1o
1y
1;
1:
0|
1{
0O
1i
b10110101 4
0g
b1011010100101111 .
0r
16
0>
0F
1V
0^
1n
1z
1/
0%
1&
1=
0M
0U
1]
1e
1-
b11010001 1
0w
1}
0!"
0%"
1'"
0)"
00"
b11100011 0
1&"
0("
1*"
0."
b1101000110100001 "
b1110001110001110 !
#90
0T
0D
0P
0@
0R
0p
1?
0L
0l
0<
0H
0h
b0 3
08
0B
1O
0W
1x
0v
09
0C
0K
1G
0i
1g
b110111001101110 .
b1101110 4
07
0;
0:
06
1>
1N
0V
0n
0z
0&
1)
05
0=
1E
0e
0m
0/
b1001010 1
1w
0}
1!"
0#"
1%"
0'"
1+"
10"
b100100 0
0~
1$"
0&"
0,"
b100101001001010 "
b10010000100100 !
#100
1p
17
b11111111 4
1W
0o
1|
0{
1v
b1111111111111111 .
1r
0>
0N
0f
1z
15
1=
1M
1U
1e
1m
1%
0)
0-
b0 1
0w
0!"
0%"
1'"
0+"
00"
b11111111 0
1~
1""
1&"
1("
1,"
1."
1/"
b1 "
b1111111111111111 !
