HERLOA/k7/HERLOAk7_waveform.vcd
$date
	Mon Nov 18 21:55:16 2024
$end
$version
	Icarus Verilog
$end
$timescale
	1s
$end
$scope module HERLOA_tb $end
$scope module uut $end
$var wire 16 ! A [15:0] $end
$var wire 16 " B [15:0] $end
$var wire 1 # cout $end
$var wire 1 $ n_9 $end
$var wire 1 % n_8 $end
$var wire 1 & n_7 $end
$var wire 1 ' n_6 $end
$var wire 1 ( n_5 $end
$var wire 1 ) n_4 $end
$var wire 1 * n_3 $end
$var wire 1 + n_2 $end
$var wire 1 , n_10 $end
$var wire 1 - n_1 $end
$var wire 1 . n_0 $end
$var wire 16 / S [15:0] $end
$var wire 1 0 Cin $end
$scope module RCA1 $end
$var wire 1 # Co $end
$var wire 7 1 X [6:0] $end
$var wire 7 2 Y [6:0] $end
$var wire 1 3 n_0 $end
$var wire 6 4 w [5:0] $end
$var wire 7 5 S [6:0] $end
$var wire 1 0 Ci $end
$scope module adder_stage[0].genblk1.FA $end
$var wire 1 6 X $end
$var wire 1 7 Y $end
$var wire 1 8 S $end
$var wire 1 9 Co $end
$var wire 1 0 Ci $end
$scope module g66__2398 $end
$var wire 1 6 A $end
$var wire 1 7 B $end
$var wire 1 9 CO $end
$var wire 1 8 S $end
$var wire 1 : \n$1 $end
$var wire 1 ; \n$2 $end
$var wire 1 < \n$3 $end
$var wire 1 0 CI $end
$upscope $end
$upscope $end
$scope module adder_stage[1].genblk1.FA $end
$var wire 1 = Ci $end
$var wire 1 > X $end
$var wire 1 ? Y $end
$var wire 1 @ S $end
$var wire 1 A Co $end
$scope module g66__5107 $end
$var wire 1 > A $end
$var wire 1 ? B $end
$var wire 1 = CI $end
$var wire 1 A CO $end
$var wire 1 @ S $end
$var wire 1 B \n$1 $end
$var wire 1 C \n$2 $end
$var wire 1 D \n$3 $end
$upscope $end
$upscope $end
$scope module adder_stage[2].genblk1.FA $end
$var wire 1 E Ci $end
$var wire 1 F X $end
$var wire 1 G Y $end
$var wire 1 H S $end
$var wire 1 I Co $end
$scope module g66__6260 $end
$var wire 1 F A $end
$var wire 1 G B $end
$var wire 1 E CI $end
$var wire 1 I CO $end
$var wire 1 H S $end
$var wire 1 J \n$1 $end
$var wire 1 K \n$2 $end
$var wire 1 L \n$3 $end
$upscope $end
$upscope $end
$scope module adder_stage[3].genblk1.FA $end
$var wire 1 M Ci $end
$var wire 1 N X $end
$var wire 1 O Y $end
$var wire 1 P S $end
$var wire 1 Q Co $end
$scope module g66__4319 $end
$var wire 1 N A $end
$var wire 1 O B $end
$var wire 1 M CI $end
$var wire 1 Q CO $end
$var wire 1 P S $end
$var wire 1 R \n$1 $end
$var wire 1 S \n$2 $end
$var wire 1 T \n$3 $end
$upscope $end
$upscope $end
$scope module adder_stage[4].genblk1.FA $end
$var wire 1 U Ci $end
$var wire 1 V X $end
$var wire 1 W Y $end
$var wire 1 X S $end
$var wire 1 Y Co $end
$scope module g66__8428 $end
$var wire 1 V A $end
$var wire 1 W B $end
$var wire 1 U CI $end
$var wire 1 Y CO $end
$var wire 1 X S $end
$var wire 1 Z \n$1 $end
$var wire 1 [ \n$2 $end
$var wire 1 \ \n$3 $end
$upscope $end
$upscope $end
$scope module adder_stage[5].genblk1.FA $end
$var wire 1 ] Ci $end
$var wire 1 ^ X $end
$var wire 1 _ Y $end
$var wire 1 ` S $end
$var wire 1 a Co $end
$scope module g66__5526 $end
$var wire 1 ^ A $end
$var wire 1 _ B $end
$var wire 1 ] CI $end
$var wire 1 a CO $end
$var wire 1 ` S $end
$var wire 1 b \n$1 $end
$var wire 1 c \n$2 $end
$var wire 1 d \n$3 $end
$upscope $end
$upscope $end
$scope module adder_stage[6].genblk1.FA $end
$var wire 1 e Ci $end
$var wire 1 3 Co $end
$var wire 1 f X $end
$var wire 1 g Y $end
$var wire 1 h n_0 $end
$var wire 1 i S $end
$scope module g37__6783 $end
$var wire 1 e B $end
$var wire 1 i Y $end
$var wire 1 h A $end
$upscope $end
$scope module g38__3680 $end
$var wire 1 g A $end
$var wire 1 f B $end
$var wire 1 h Y $end
$upscope $end
$upscope $end
$upscope $end
$scope module g220__1617 $end
$var wire 1 j Y $end
$var wire 1 , B $end
$var wire 1 ' A $end
$upscope $end
$scope module g221__2802 $end
$var wire 1 k Y $end
$var wire 1 , B $end
$var wire 1 . A $end
$upscope $end
$scope module g222__1705 $end
$var wire 1 l Y $end
$var wire 1 , B $end
$var wire 1 ( A $end
$upscope $end
$scope module g223__5122 $end
$var wire 1 m Y $end
$var wire 1 , B $end
$var wire 1 & A $end
$upscope $end
$scope module g224__8246 $end
$var wire 1 n Y $end
$var wire 1 , B $end
$var wire 1 + A $end
$upscope $end
$scope module g225__7098 $end
$var wire 1 o Y $end
$var wire 1 , B $end
$var wire 1 - A $end
$upscope $end
$scope module g226__6131 $end
$var wire 1 p Y $end
$var wire 1 , B $end
$var wire 1 ) A $end
$upscope $end
$scope module g227__1881 $end
$var wire 1 q A0N $end
$var wire 1 r Y $end
$var wire 1 s \n$1 $end
$var wire 1 t \n$2 $end
$var wire 1 u \n$3 $end
$var wire 1 % B0 $end
$var wire 1 $ A1N $end
$upscope $end
$scope module g228__5115 $end
$var wire 1 , Y $end
$var wire 1 $ B $end
$var wire 1 * A $end
$upscope $end
$scope module g229__7482 $end
$var wire 1 v Y $end
$var wire 1 $ B $end
$var wire 1 * A $end
$upscope $end
$scope module g230__4733 $end
$var wire 1 w A $end
$var wire 1 x B $end
$var wire 1 0 CO $end
$var wire 1 $ S $end
$upscope $end
$scope module g231__6161 $end
$var wire 1 y A $end
$var wire 1 z B $end
$var wire 1 % Y $end
$upscope $end
$scope module g232__9315 $end
$var wire 1 { A $end
$var wire 1 | B $end
$var wire 1 & Y $end
$upscope $end
$scope module g233__9945 $end
$var wire 1 } A $end
$var wire 1 ~ B $end
$var wire 1 ' Y $end
$upscope $end
$scope module g234__2883 $end
$var wire 1 !" A $end
$var wire 1 "" B $end
$var wire 1 ( Y $end
$upscope $end
$scope module g235__2346 $end
$var wire 1 #" A $end
$var wire 1 $" B $end
$var wire 1 ) Y $end
$upscope $end
$scope module g236__1666 $end
$var wire 1 %" A $end
$var wire 1 &" B $end
$var wire 1 + Y $end
$upscope $end
$scope module g237__7410 $end
$var wire 1 '" A $end
$var wire 1 (" B $end
$var wire 1 - Y $end
$upscope $end
$scope module g238__6417 $end
$var wire 1 )" A $end
$var wire 1 *" B $end
$var wire 1 . Y $end
$upscope $end
$scope module g239__5477 $end
$var wire 1 +" A $end
$var wire 1 ," B $end
$var wire 1 * Y $end
$upscope $end
$upscope $end
$upscope $end
$enddefinitions $end
#0
$dumpvars
0,"
0+"
0*"
0)"
0("
0'"
0&"
0%"
0$"
0#"
0""
0!"
0~
0}
0|
0{
0z
0y
0x
0w
0v
1u
1t
1s
0r
0q
0p
0o
0n
0m
0l
0k
0j
0i
1h
0g
0f
0e
0d
0c
0b
0a
0`
0_
0^
0]
0\
0[
0Z
0Y
0X
0W
0V
0U
0T
0S
0R
0Q
0P
0O
0N
0M
0L
0K
0J
0I
0H
0G
0F
0E
0D
0C
0B
0A
0@
0?
0>
0=
0<
0;
0:
09
08
07
06
b0 5
b0 4
z3
b0 2
b0 1
00
b0 /
1.
1-
1,
1+
0*
1)
1(
1'
1&
1%
0$
z#
b0 "
b0 !
$end
#10
1m
1j
1l
1p
1n
1o
1k
b101111111 /
1v
0t
0&
0'
0(
0)
0+
0-
0.
1*
1q
1y
1{
1}
1!"
1#"
1%"
1'"
1)"
1,"
1z
1|
1~
1""
1$"
1&"
1("
1*"
1+"
b11111111 "
b11111111 !
#20
1K
1L
1H
1S
1T
1P
1[
1\
1X
1c
1d
1`
1i
1C
1D
1@
1E
1M
1U
1]
1e
1=
1A
1I
1Q
1Y
1a
b111111 4
19
1:
1B
1J
1R
1Z
1b
b1111111 5
18
1<
1;
0m
0j
0l
0p
0n
0o
0k
b1111111000000000 /
0v
17
1?
1G
1O
1W
1_
1g
1t
16
1>
1F
1N
1V
1^
1f
10
1&
1'
1(
1)
1+
1-
1.
0*
b1111111 2
0q
1w
0y
0{
0}
0!"
0#"
0%"
0'"
0)"
0,"
b1111111 1
1x
0z
0|
0~
0""
0$"
0&"
0("
0*"
0+"
b1111111100000000 "
b1111111100000000 !
#30
0e
0a
0c
0]
0Y
0\
0U
0Q
0S
0M
0I
0L
0E
0A
0C
0=
1i
b0 4
09
0:
0J
0K
1H
0Z
0[
1X
0h
1j
1l
1p
1o
0B
0D
1@
0R
0T
1P
0b
0d
b1111111 5
1`
0<
0;
1v
0u
1r
1m
1n
b1111111111111111 /
1k
07
0G
0W
0g
0'
0(
0)
0-
0>
0N
0^
00
1$
0%
0&
0+
0.
b101010 2
1}
1!"
1#"
1'"
b1010101 1
0x
1z
1|
1&"
1*"
1+"
b101010101010101 "
b1010101010101010 !
#40
1S
1T
1c
1d
1K
1L
1[
1\
1C
1D
1M
1]
1E
1U
1e
1=
1I
1Y
1i
1A
1Q
1a
b111111 4
19
1:
1J
1H
1Z
1X
1h
0r
1B
1@
1R
1P
1b
b1111111101111111 /
b1111111 5
1`
1<
1;
1u
17
1G
1W
1g
0t
1%
1*
1>
1N
1^
10
0$
b1111111 2
1q
1y
1{
1%"
1)"
1,"
b1111111 1
1x
1~
1""
1$"
1("
b1111111111111111 "
b1111111111111111 !
#50
0H
0P
0X
0`
0i
0@
0E
0M
0U
0]
0e
0=
0A
0I
0Q
0Y
0a
b0 4
09
0C
0K
0S
0[
0c
0:
0B
0D
0J
0L
0R
0T
0Z
0\
0b
0d
b0 5
08
0<
0;
0m
0j
0l
0n
0o
0k
b1 /
0v
07
0?
0G
0O
0W
0_
0g
1t
06
0>
0F
0N
0V
0^
0f
00
1&
1'
1(
1+
1-
1.
0*
b0 2
0q
0w
0y
0{
0}
0!"
0%"
0'"
0)"
0,"
b0 1
0x
0z
0|
0~
0""
0&"
0("
0*"
0+"
b1 "
b1 !
#60
1i
1@
1H
1`
0h
0s
1r
1j
1l
1n
18
1P
b1111111 5
1X
1v
0u
1m
1o
b1111111111111111 /
1k
1?
1G
1_
1g
0t
0%
0'
0(
0+
16
1N
1V
1$
0&
0-
0.
b1100110 2
1q
1y
1}
1!"
0#"
1%"
1,"
b11001 1
1x
1|
1("
1*"
b1100110011001100 "
b11001100110011 !
#70
1s
17
0G
1W
0g
1t
06
1F
0V
1f
b110011 2
0q
0y
1{
0%"
1)"
0,"
b1001100 1
1z
0|
1&"
0*"
1+"
b110011001100110 "
b1001100110011001 !
#80
1=
1e
1i
19
b100001 4
1a
1@
1h
1u
0r
0l
1<
08
0H
1b
b1011010 5
0`
b1011010100101111 /
0o
07
0?
1O
0W
1g
0t
10
0$
1%
1(
1*
16
0F
0N
1V
1^
1-
b1101000 2
1q
1w
1y
0{
0}
0!"
1#"
1,"
b1110001 1
1|
1~
0$"
0("
b1101000110100001 "
b1110001110001110 !
#90
0M
0I
0K
0i
0E
0e
0=
0A
0a
b0 4
09
1H
0P
1l
0p
0D
1@
0b
1`
b110111 5
18
0<
b110111001101110 /
0v
17
1G
0O
0g
1t
0(
1)
06
1>
0^
0f
00
0*
b100101 2
0q
0w
0y
1{
1!"
0#"
1%"
0)"
0,"
b10010 1
0x
0z
0|
0&"
1*"
0+"
b100101001001010 "
b10010000100100 !
#100
1i
b1111111 5
1P
0h
1v
0u
1r
1p
b1111111111111111 /
1o
07
0G
0_
16
1F
1N
1^
1f
1$
0%
0)
0-
b0 2
0{
0!"
1#"
0%"
b1111111 1
1x
1z
1|
1""
1$"
1&"
1("
1+"
b1 "
b1111111111111111 !
