HERLOA/k11/HERLOAk11_waveform.vcd
$date
	Mon Nov 18 21:59:16 2024
$end
$version
	Icarus Verilog
$end
$timescale
	1s
$end
$scope module HERLOA_tb $end
$scope module uut $end
$var wire 16 ! A [15:0] $end
$var wire 16 " B [15:0] $end
$var wire 1 # cout $end
$var wire 1 $ n_6 $end
$var wire 1 % n_5 $end
$var wire 1 & n_4 $end
$var wire 1 ' n_3 $end
$var wire 1 ( n_2 $end
$var wire 1 ) n_1 $end
$var wire 1 * n_0 $end
$var wire 16 + S [15:0] $end
$var wire 1 , Cin $end
$scope module RCA1 $end
$var wire 1 # Co $end
$var wire 11 - X [10:0] $end
$var wire 11 . Y [10:0] $end
$var wire 1 / n_0 $end
$var wire 10 0 w [9:0] $end
$var wire 11 1 S [10:0] $end
$var wire 1 , Ci $end
$scope module adder_stage[0].genblk1.FA $end
$var wire 1 2 X $end
$var wire 1 3 Y $end
$var wire 1 4 S $end
$var wire 1 5 Co $end
$var wire 1 , Ci $end
$scope module g66__2398 $end
$var wire 1 2 A $end
$var wire 1 3 B $end
$var wire 1 5 CO $end
$var wire 1 4 S $end
$var wire 1 6 \n$1 $end
$var wire 1 7 \n$2 $end
$var wire 1 8 \n$3 $end
$var wire 1 , CI $end
$upscope $end
$upscope $end
$scope module adder_stage[10].genblk1.FA $end
$var wire 1 9 Ci $end
$var wire 1 / Co $end
$var wire 1 : X $end
$var wire 1 ; Y $end
$var wire 1 < n_0 $end
$var wire 1 = S $end
$scope module g37__1705 $end
$var wire 1 9 B $end
$var wire 1 = Y $end
$var wire 1 < A $end
$upscope $end
$scope module g38__5122 $end
$var wire 1 ; A $end
$var wire 1 : B $end
$var wire 1 < Y $end
$upscope $end
$upscope $end
$scope module adder_stage[1].genblk1.FA $end
$var wire 1 > Ci $end
$var wire 1 ? X $end
$var wire 1 @ Y $end
$var wire 1 A S $end
$var wire 1 B Co $end
$scope module g66__5107 $end
$var wire 1 ? A $end
$var wire 1 @ B $end
$var wire 1 > CI $end
$var wire 1 B CO $end
$var wire 1 A S $end
$var wire 1 C \n$1 $end
$var wire 1 D \n$2 $end
$var wire 1 E \n$3 $end
$upscope $end
$upscope $end
$scope module adder_stage[2].genblk1.FA $end
$var wire 1 F Ci $end
$var wire 1 G X $end
$var wire 1 H Y $end
$var wire 1 I S $end
$var wire 1 J Co $end
$scope module g66__6260 $end
$var wire 1 G A $end
$var wire 1 H B $end
$var wire 1 F CI $end
$var wire 1 J CO $end
$var wire 1 I S $end
$var wire 1 K \n$1 $end
$var wire 1 L \n$2 $end
$var wire 1 M \n$3 $end
$upscope $end
$upscope $end
$scope module adder_stage[3].genblk1.FA $end
$var wire 1 N Ci $end
$var wire 1 O X $end
$var wire 1 P Y $end
$var wire 1 Q S $end
$var wire 1 R Co $end
$scope module g66__4319 $end
$var wire 1 O A $end
$var wire 1 P B $end
$var wire 1 N CI $end
$var wire 1 R CO $end
$var wire 1 Q S $end
$var wire 1 S \n$1 $end
$var wire 1 T \n$2 $end
$var wire 1 U \n$3 $end
$upscope $end
$upscope $end
$scope module adder_stage[4].genblk1.FA $end
$var wire 1 V Ci $end
$var wire 1 W X $end
$var wire 1 X Y $end
$var wire 1 Y S $end
$var wire 1 Z Co $end
$scope module g66__8428 $end
$var wire 1 W A $end
$var wire 1 X B $end
$var wire 1 V CI $end
$var wire 1 Z CO $end
$var wire 1 Y S $end
$var wire 1 [ \n$1 $end
$var wire 1 \ \n$2 $end
$var wire 1 ] \n$3 $end
$upscope $end
$upscope $end
$scope module adder_stage[5].genblk1.FA $end
$var wire 1 ^ Ci $end
$var wire 1 _ X $end
$var wire 1 ` Y $end
$var wire 1 a S $end
$var wire 1 b Co $end
$scope module g66__5526 $end
$var wire 1 _ A $end
$var wire 1 ` B $end
$var wire 1 ^ CI $end
$var wire 1 b CO $end
$var wire 1 a S $end
$var wire 1 c \n$1 $end
$var wire 1 d \n$2 $end
$var wire 1 e \n$3 $end
$upscope $end
$upscope $end
$scope module adder_stage[6].genblk1.FA $end
$var wire 1 f Ci $end
$var wire 1 g X $end
$var wire 1 h Y $end
$var wire 1 i S $end
$var wire 1 j Co $end
$scope module g66__6783 $end
$var wire 1 g A $end
$var wire 1 h B $end
$var wire 1 f CI $end
$var wire 1 j CO $end
$var wire 1 i S $end
$var wire 1 k \n$1 $end
$var wire 1 l \n$2 $end
$var wire 1 m \n$3 $end
$upscope $end
$upscope $end
$scope module adder_stage[7].genblk1.FA $end
$var wire 1 n Ci $end
$var wire 1 o X $end
$var wire 1 p Y $end
$var wire 1 q S $end
$var wire 1 r Co $end
$scope module g66__3680 $end
$var wire 1 o A $end
$var wire 1 p B $end
$var wire 1 n CI $end
$var wire 1 r CO $end
$var wire 1 q S $end
$var wire 1 s \n$1 $end
$var wire 1 t \n$2 $end
$var wire 1 u \n$3 $end
$upscope $end
$upscope $end
$scope module adder_stage[8].genblk1.FA $end
$var wire 1 v Ci $end
$var wire 1 w X $end
$var wire 1 x Y $end
$var wire 1 y S $end
$var wire 1 z Co $end
$scope module g66__1617 $end
$var wire 1 w A $end
$var wire 1 x B $end
$var wire 1 v CI $end
$var wire 1 z CO $end
$var wire 1 y S $end
$var wire 1 { \n$1 $end
$var wire 1 | \n$2 $end
$var wire 1 } \n$3 $end
$upscope $end
$upscope $end
$scope module adder_stage[9].genblk1.FA $end
$var wire 1 ~ Ci $end
$var wire 1 !" X $end
$var wire 1 "" Y $end
$var wire 1 #" S $end
$var wire 1 $" Co $end
$scope module g66__2802 $end
$var wire 1 !" A $end
$var wire 1 "" B $end
$var wire 1 ~ CI $end
$var wire 1 $" CO $end
$var wire 1 #" S $end
$var wire 1 %" \n$1 $end
$var wire 1 &" \n$2 $end
$var wire 1 '" \n$3 $end
$upscope $end
$upscope $end
$upscope $end
$scope module g183__8246 $end
$var wire 1 (" Y $end
$var wire 1 $ B $end
$var wire 1 ' A $end
$upscope $end
$scope module g184__7098 $end
$var wire 1 )" Y $end
$var wire 1 $ B $end
$var wire 1 ( A $end
$upscope $end
$scope module g185__6131 $end
$var wire 1 *" Y $end
$var wire 1 $ B $end
$var wire 1 * A $end
$upscope $end
$scope module g186__1881 $end
$var wire 1 +" A0N $end
$var wire 1 ," Y $end
$var wire 1 -" \n$1 $end
$var wire 1 ." \n$2 $end
$var wire 1 /" \n$3 $end
$var wire 1 & B0 $end
$var wire 1 % A1N $end
$upscope $end
$scope module g187__5115 $end
$var wire 1 $ Y $end
$var wire 1 % B $end
$var wire 1 ) A $end
$upscope $end
$scope module g188__7482 $end
$var wire 1 0" Y $end
$var wire 1 % B $end
$var wire 1 ) A $end
$upscope $end
$scope module g189__4733 $end
$var wire 1 1" A $end
$var wire 1 2" B $end
$var wire 1 , CO $end
$var wire 1 % S $end
$upscope $end
$scope module g190__6161 $end
$var wire 1 3" A $end
$var wire 1 4" B $end
$var wire 1 & Y $end
$upscope $end
$scope module g191__9315 $end
$var wire 1 5" A $end
$var wire 1 6" B $end
$var wire 1 ' Y $end
$upscope $end
$scope module g192__9945 $end
$var wire 1 7" A $end
$var wire 1 8" B $end
$var wire 1 ( Y $end
$upscope $end
$scope module g193__2883 $end
$var wire 1 9" A $end
$var wire 1 :" B $end
$var wire 1 * Y $end
$upscope $end
$scope module g194__2346 $end
$var wire 1 ;" A $end
$var wire 1 <" B $end
$var wire 1 ) Y $end
$upscope $end
$upscope $end
$upscope $end
$enddefinitions $end
#0
$dumpvars
0<"
0;"
0:"
09"
08"
07"
06"
05"
04"
03"
02"
01"
00"
1/"
1."
1-"
0,"
0+"
0*"
0)"
0("
0'"
0&"
0%"
0$"
0#"
0""
0!"
0~
0}
0|
0{
0z
0y
0x
0w
0v
0u
0t
0s
0r
0q
0p
0o
0n
0m
0l
0k
0j
0i
0h
0g
0f
0e
0d
0c
0b
0a
0`
0_
0^
0]
0\
0[
0Z
0Y
0X
0W
0V
0U
0T
0S
0R
0Q
0P
0O
0N
0M
0L
0K
0J
0I
0H
0G
0F
0E
0D
0C
0B
0A
0@
0?
0>
0=
1<
0;
0:
09
08
07
06
05
04
03
02
b0 1
b0 0
z/
b0 .
b0 -
0,
b0 +
1*
0)
1(
1'
1&
0%
1$
z#
b0 "
b0 !
$end
#10
1L
1M
1I
1Q
1D
1E
1A
1F
1N
1>
1B
1J
b111 0
15
16
1C
1K
b1111 1
14
18
17
1("
1)"
1*"
b111110111 +
10"
13
1@
1H
12
1?
1G
0."
1,
0'
0(
0*
1)
b111 .
11"
13"
15"
17"
19"
1<"
b111 -
1+"
12"
14"
16"
18"
1:"
1;"
b11111111 "
b11111111 !
#20
0I
0Q
1\
1]
1Y
1d
1e
1a
1l
1m
1i
1t
1u
1q
1|
1}
1y
1&"
1'"
1#"
1=
0A
0F
0N
1V
1^
1f
1n
1v
1~
19
0>
0B
0J
1R
1Z
1b
1j
1r
1z
1$"
b1111111000 0
05
0D
0L
0T
06
0C
0E
0K
0M
1S
0U
1[
1c
1k
1s
1{
1%"
b11111110000 1
04
08
07
0("
0)"
0*"
b1111111000000000 +
00"
03
0@
0H
1P
1X
1`
1h
1p
1x
1""
1;
02
0?
0G
1O
1W
1_
1g
1o
1w
1!"
1:
1."
0,
1'
1(
1*
0)
b11111111000 .
01"
03"
05"
07"
09"
0<"
b11111111000 -
0+"
02"
04"
06"
08"
0:"
0;"
b1111111100000000 "
b1111111100000000 !
#30
09
0$"
0&"
0~
0z
0}
0v
0r
0t
0n
0j
0m
0f
0b
0d
0^
0Z
0]
0V
1=
0-"
b0 0
0R
1A
0[
0\
1Y
0k
0l
1i
0{
0|
1y
0<
10"
0/"
1("
1*"
14
1I
0S
1Q
0c
0e
1a
0s
0u
1q
0%"
0'"
b11111111111 1
1#"
1,"
b1111111111111111 +
1)"
1@
0X
0h
0x
0;
1%
0'
0*
12
1G
0O
0_
0o
0!"
0."
0&
0(
b1010101010 .
11"
15"
19"
b10101010101 -
1+"
14"
18"
1;"
b101010101010101 "
b1010101010101010 !
#40
1T
1U
1d
1e
1t
1u
1&"
1'"
1L
1M
1\
1]
1l
1m
1|
1}
1D
1E
1N
1^
1n
1~
1F
1V
1f
1v
19
1>
0,"
1J
1Z
1j
1z
1=
1B
1R
1b
1r
1$"
b1111111111 0
15
1-"
16
1K
1I
1[
1Y
1k
1i
1{
1y
1<
1C
1A
1S
1Q
1c
1a
1s
1q
1%"
b1111111111110111 +
b11111111111 1
1#"
18
17
1/"
13
1H
1X
1h
1x
1;
1&
1)
1?
1O
1_
1o
1!"
1,
0%
b11111111111 .
13"
17"
1<"
b11111111111 -
12"
16"
1:"
b1111111111111111 "
b1111111111111111 !
#50
0I
0Q
0Y
0a
0i
0q
0y
0#"
0=
0A
0F
0N
0V
0^
0f
0n
0v
0~
09
0>
0B
0J
0R
0Z
0b
0j
0r
0z
0$"
b0 0
05
0D
0L
0T
0\
0d
0l
0t
0|
0&"
06
0C
0E
0K
0M
0S
0U
0[
0]
0c
0e
0k
0m
0s
0u
0{
0}
0%"
0'"
b0 1
04
08
07
0("
0)"
b1 +
00"
03
0@
0H
0P
0X
0`
0h
0p
0x
0""
0;
02
0?
0G
0O
0W
0_
0g
0o
0w
0!"
0:
1."
0,
1'
1(
0)
b0 .
01"
03"
05"
07"
0<"
b0 -
0+"
02"
04"
06"
08"
0;"
b1 "
b1 !
#60
1=
1A
1I
1a
1i
1#"
0<
1,"
1("
14
1Q
1Y
1q
b11111111111 1
1y
10"
0/"
b1111111111111111 +
1)"
1@
1H
1`
1h
1""
1;
0&
0'
12
1O
1W
1o
1w
1%
0(
b11001100110 .
13"
15"
09"
1<"
b110011001 -
12"
18"
b1100110011001100 "
b11001100110011 !
#70
0-"
13
0H
1X
0h
1x
0;
02
1G
0W
1g
0w
1:
0."
b1100110011 .
03"
17"
0<"
b10011001100 -
1+"
14"
08"
1;"
b110011001100110 "
b1001100110011001 !
#80
1^
1Z
1T
1U
1]
0Y
1N
1V
19
1J
1R
1=
b1000011100 0
1$"
1-"
0A
1K
0I
1S
1Q
1a
1<
0i
1%"
b10110101001 1
0#"
b1011010100101111 +
00"
1/"
0@
1H
1P
0X
0`
1p
0x
1;
1W
0g
0o
1w
1!"
0%
b11010001101 .
05"
07"
19"
b11100011100 -
02"
16"
18"
0:"
b1101000110100001 "
b1110001110001110 !
#90
0^
0n
0Z
0j
0Q
1Y
0l
0=
0N
0V
0f
09
0J
0R
0b
b0 0
0$"
1A
0T
0\
1i
0q
0*"
0K
0S
0U
0]
0e
1a
0%"
b110111001101110 +
b1101110011 1
1#"
03
1@
0H
0P
1X
1h
0p
0;
1*
12
0G
0O
0W
1_
0!"
0:
1."
b1001010010 .
13"
17"
09"
1<"
b100100001 -
0+"
04"
08"
0;"
b100101001001010 "
b10010000100100 !
#100
1=
1I
1Q
b11111111111 1
1q
0<
0-"
10"
0/"
b1111111111111111 +
1*"
0@
0X
0h
0""
1?
1G
1O
1W
1g
1o
1!"
1:
0."
1%
0*
b0 .
03"
07"
19"
0<"
b11111111111 -
1+"
12"
14"
18"
1:"
1;"
b1 "
b1111111111111111 !
