HERLOA/k9/HERLOAk9_waveform.vcd
$date
	Mon Nov 18 21:57:15 2024
$end
$version
	Icarus Verilog
$end
$timescale
	1s
$end
$scope module HERLOA_tb $end
$scope module uut $end
$var wire 16 ! A [15:0] $end
$var wire 16 " B [15:0] $end
$var wire 1 # cout $end
$var wire 1 $ n_8 $end
$var wire 1 % n_7 $end
$var wire 1 & n_6 $end
$var wire 1 ' n_5 $end
$var wire 1 ( n_4 $end
$var wire 1 ) n_3 $end
$var wire 1 * n_2 $end
$var wire 1 + n_1 $end
$var wire 1 , n_0 $end
$var wire 16 - S [15:0] $end
$var wire 1 . Cin $end
$scope module RCA1 $end
$var wire 1 # Co $end
$var wire 9 / X [8:0] $end
$var wire 9 0 Y [8:0] $end
$var wire 1 1 n_0 $end
$var wire 8 2 w [7:0] $end
$var wire 9 3 S [8:0] $end
$var wire 1 . Ci $end
$scope module adder_stage[0].genblk1.FA $end
$var wire 1 4 X $end
$var wire 1 5 Y $end
$var wire 1 6 S $end
$var wire 1 7 Co $end
$var wire 1 . Ci $end
$scope module g66__2398 $end
$var wire 1 4 A $end
$var wire 1 5 B $end
$var wire 1 7 CO $end
$var wire 1 6 S $end
$var wire 1 8 \n$1 $end
$var wire 1 9 \n$2 $end
$var wire 1 : \n$3 $end
$var wire 1 . CI $end
$upscope $end
$upscope $end
$scope module adder_stage[1].genblk1.FA $end
$var wire 1 ; Ci $end
$var wire 1 < X $end
$var wire 1 = Y $end
$var wire 1 > S $end
$var wire 1 ? Co $end
$scope module g66__5107 $end
$var wire 1 < A $end
$var wire 1 = B $end
$var wire 1 ; CI $end
$var wire 1 ? CO $end
$var wire 1 > S $end
$var wire 1 @ \n$1 $end
$var wire 1 A \n$2 $end
$var wire 1 B \n$3 $end
$upscope $end
$upscope $end
$scope module adder_stage[2].genblk1.FA $end
$var wire 1 C Ci $end
$var wire 1 D X $end
$var wire 1 E Y $end
$var wire 1 F S $end
$var wire 1 G Co $end
$scope module g66__6260 $end
$var wire 1 D A $end
$var wire 1 E B $end
$var wire 1 C CI $end
$var wire 1 G CO $end
$var wire 1 F S $end
$var wire 1 H \n$1 $end
$var wire 1 I \n$2 $end
$var wire 1 J \n$3 $end
$upscope $end
$upscope $end
$scope module adder_stage[3].genblk1.FA $end
$var wire 1 K Ci $end
$var wire 1 L X $end
$var wire 1 M Y $end
$var wire 1 N S $end
$var wire 1 O Co $end
$scope module g66__4319 $end
$var wire 1 L A $end
$var wire 1 M B $end
$var wire 1 K CI $end
$var wire 1 O CO $end
$var wire 1 N S $end
$var wire 1 P \n$1 $end
$var wire 1 Q \n$2 $end
$var wire 1 R \n$3 $end
$upscope $end
$upscope $end
$scope module adder_stage[4].genblk1.FA $end
$var wire 1 S Ci $end
$var wire 1 T X $end
$var wire 1 U Y $end
$var wire 1 V S $end
$var wire 1 W Co $end
$scope module g66__8428 $end
$var wire 1 T A $end
$var wire 1 U B $end
$var wire 1 S CI $end
$var wire 1 W CO $end
$var wire 1 V S $end
$var wire 1 X \n$1 $end
$var wire 1 Y \n$2 $end
$var wire 1 Z \n$3 $end
$upscope $end
$upscope $end
$scope module adder_stage[5].genblk1.FA $end
$var wire 1 [ Ci $end
$var wire 1 \ X $end
$var wire 1 ] Y $end
$var wire 1 ^ S $end
$var wire 1 _ Co $end
$scope module g66__5526 $end
$var wire 1 \ A $end
$var wire 1 ] B $end
$var wire 1 [ CI $end
$var wire 1 _ CO $end
$var wire 1 ^ S $end
$var wire 1 ` \n$1 $end
$var wire 1 a \n$2 $end
$var wire 1 b \n$3 $end
$upscope $end
$upscope $end
$scope module adder_stage[6].genblk1.FA $end
$var wire 1 c Ci $end
$var wire 1 d X $end
$var wire 1 e Y $end
$var wire 1 f S $end
$var wire 1 g Co $end
$scope module g66__6783 $end
$var wire 1 d A $end
$var wire 1 e B $end
$var wire 1 c CI $end
$var wire 1 g CO $end
$var wire 1 f S $end
$var wire 1 h \n$1 $end
$var wire 1 i \n$2 $end
$var wire 1 j \n$3 $end
$upscope $end
$upscope $end
$scope module adder_stage[7].genblk1.FA $end
$var wire 1 k Ci $end
$var wire 1 l X $end
$var wire 1 m Y $end
$var wire 1 n S $end
$var wire 1 o Co $end
$scope module g66__3680 $end
$var wire 1 l A $end
$var wire 1 m B $end
$var wire 1 k CI $end
$var wire 1 o CO $end
$var wire 1 n S $end
$var wire 1 p \n$1 $end
$var wire 1 q \n$2 $end
$var wire 1 r \n$3 $end
$upscope $end
$upscope $end
$scope module adder_stage[8].genblk1.FA $end
$var wire 1 s Ci $end
$var wire 1 1 Co $end
$var wire 1 t X $end
$var wire 1 u Y $end
$var wire 1 v n_0 $end
$var wire 1 w S $end
$scope module g37__1617 $end
$var wire 1 s B $end
$var wire 1 w Y $end
$var wire 1 v A $end
$upscope $end
$scope module g38__2802 $end
$var wire 1 u A $end
$var wire 1 t B $end
$var wire 1 v Y $end
$upscope $end
$upscope $end
$upscope $end
$scope module g181__1705 $end
$var wire 1 x Y $end
$var wire 1 $ B $end
$var wire 1 ' A $end
$upscope $end
$scope module g182__5122 $end
$var wire 1 y Y $end
$var wire 1 $ B $end
$var wire 1 ) A $end
$upscope $end
$scope module g183__8246 $end
$var wire 1 z Y $end
$var wire 1 $ B $end
$var wire 1 ( A $end
$upscope $end
$scope module g184__7098 $end
$var wire 1 { Y $end
$var wire 1 $ B $end
$var wire 1 + A $end
$upscope $end
$scope module g185__6131 $end
$var wire 1 | Y $end
$var wire 1 $ B $end
$var wire 1 , A $end
$upscope $end
$scope module g186__1881 $end
$var wire 1 } A0N $end
$var wire 1 ~ Y $end
$var wire 1 !" \n$1 $end
$var wire 1 "" \n$2 $end
$var wire 1 #" \n$3 $end
$var wire 1 & B0 $end
$var wire 1 % A1N $end
$upscope $end
$scope module g187__5115 $end
$var wire 1 $ Y $end
$var wire 1 % B $end
$var wire 1 * A $end
$upscope $end
$scope module g188__7482 $end
$var wire 1 $" Y $end
$var wire 1 % B $end
$var wire 1 * A $end
$upscope $end
$scope module g189__4733 $end
$var wire 1 %" A $end
$var wire 1 &" B $end
$var wire 1 . CO $end
$var wire 1 % S $end
$upscope $end
$scope module g190__6161 $end
$var wire 1 '" A $end
$var wire 1 (" B $end
$var wire 1 & Y $end
$upscope $end
$scope module g191__9315 $end
$var wire 1 )" A $end
$var wire 1 *" B $end
$var wire 1 ' Y $end
$upscope $end
$scope module g192__9945 $end
$var wire 1 +" A $end
$var wire 1 ," B $end
$var wire 1 ( Y $end
$upscope $end
$scope module g193__2883 $end
$var wire 1 -" A $end
$var wire 1 ." B $end
$var wire 1 ) Y $end
$upscope $end
$scope module g194__2346 $end
$var wire 1 /" A $end
$var wire 1 0" B $end
$var wire 1 + Y $end
$upscope $end
$scope module g195__1666 $end
$var wire 1 1" A $end
$var wire 1 2" B $end
$var wire 1 , Y $end
$upscope $end
$scope module g196__7410 $end
$var wire 1 3" A $end
$var wire 1 4" B $end
$var wire 1 * Y $end
$upscope $end
$upscope $end
$upscope $end
$enddefinitions $end
#0
$dumpvars
04"
03"
02"
01"
00"
0/"
0."
0-"
0,"
0+"
0*"
0)"
0("
0'"
0&"
0%"
0$"
1#"
1""
1!"
0~
0}
0|
0{
0z
0y
0x
0w
1v
0u
0t
0s
0r
0q
0p
0o
0n
0m
0l
0k
0j
0i
0h
0g
0f
0e
0d
0c
0b
0a
0`
0_
0^
0]
0\
0[
0Z
0Y
0X
0W
0V
0U
0T
0S
0R
0Q
0P
0O
0N
0M
0L
0K
0J
0I
0H
0G
0F
0E
0D
0C
0B
0A
0@
0?
0>
0=
0<
0;
0:
09
08
07
06
05
04
b0 3
b0 2
z1
b0 0
b0 /
0.
b0 -
1,
1+
0*
1)
1(
1'
1&
0%
1$
z#
b0 "
b0 !
$end
#10
1>
1;
b1 2
17
18
b11 3
16
1:
19
1x
1z
1y
1{
1|
b111011111 -
1$"
15
14
0""
1.
0'
0(
0)
0+
0,
1*
b1 0
1%"
1'"
1)"
1+"
1-"
1/"
11"
14"
b1 /
1}
1&"
1("
1*"
1,"
1."
10"
12"
13"
b11111111 "
b11111111 !
#20
1I
1J
1F
1Q
1R
1N
1Y
1Z
1V
1a
1b
1^
1i
1j
1f
1q
1r
1n
1w
0>
1C
1K
1S
1[
1c
1k
1s
0;
1?
1G
1O
1W
1_
1g
1o
b11111110 2
07
0A
08
1@
0B
1H
1P
1X
1`
1h
1p
b111111100 3
06
0:
09
0x
0z
0y
0{
0|
b1111111000000000 -
0$"
05
1=
1E
1M
1U
1]
1e
1m
1u
04
1<
1D
1L
1T
1\
1d
1l
1t
1""
0.
1'
1(
1)
1+
1,
0*
b111111110 0
0%"
0'"
0)"
0+"
0-"
0/"
01"
04"
b111111110 /
0}
0&"
0("
0*"
0,"
0."
00"
02"
03"
b1111111100000000 "
b1111111100000000 !
#30
0s
0o
0q
0k
0g
0j
0c
0_
0a
0[
0W
0Z
0S
0O
0Q
0K
0G
0J
0C
1w
0!"
b0 2
0?
0H
0I
1F
0X
0Y
1V
0h
0i
1f
0v
1$"
0#"
1x
1z
1{
16
0@
1>
0P
0R
1N
0`
0b
1^
0p
0r
b111111111 3
1n
1~
1y
b1111111111111111 -
1|
0E
0U
0e
0u
1%
0'
0(
0+
14
0<
0L
0\
0l
0""
0&
0)
0,
b10101010 0
1%"
1)"
1+"
1/"
b101010101 /
1}
1("
1."
12"
13"
b101010101010101 "
b1010101010101010 !
#40
1Q
1R
1a
1b
1q
1r
1I
1J
1Y
1Z
1i
1j
1A
1B
1K
1[
1k
1C
1S
1c
1s
1;
0~
1G
1W
1g
1w
1?
1O
1_
1o
b11111111 2
17
1!"
18
1H
1F
1X
1V
1h
1f
1v
1@
1>
1P
1N
1`
1^
1p
b1111111111011111 -
b111111111 3
1n
1:
19
1#"
15
1E
1U
1e
1u
1&
1*
1<
1L
1\
1l
1.
0%
b111111111 0
1'"
1-"
11"
14"
b111111111 /
1&"
1*"
1,"
10"
b1111111111111111 "
b1111111111111111 !
#50
0F
0N
0V
0^
0f
0n
0w
0>
0C
0K
0S
0[
0c
0k
0s
0;
0?
0G
0O
0W
0_
0g
0o
b0 2
07
0A
0I
0Q
0Y
0a
0i
0q
08
0@
0B
0H
0J
0P
0R
0X
0Z
0`
0b
0h
0j
0p
0r
b0 3
06
0:
09
0x
0y
0{
0|
b1 -
0$"
05
0=
0E
0M
0U
0]
0e
0m
0u
04
0<
0D
0L
0T
0\
0d
0l
0t
1""
0.
1'
1)
1+
1,
0*
b0 0
0%"
0'"
0)"
0-"
0/"
01"
04"
b0 /
0}
0&"
0("
0*"
0."
00"
02"
03"
b1 "
b1 !
#60
1w
0!"
16
1N
1V
1n
0v
1$"
0#"
1y
1{
1>
1F
1^
b111111111 3
1f
1~
1x
b1111111111111111 -
1|
15
1M
1U
1m
1u
1%
0)
0+
1<
1D
1\
1d
0""
0&
0'
0,
b110011001 0
1%"
0+"
1-"
1/"
b1100110 /
1}
1("
1*"
12"
13"
b1100110011001100 "
b11001100110011 !
#70
1!"
05
1E
0U
1e
0u
14
0D
1T
0d
1t
1""
b11001100 0
1'"
0-"
11"
14"
b100110011 /
0}
0("
1."
02"
03"
b110011001100110 "
b1001100110011001 !
#80
1K
1G
1A
1B
1J
0F
1;
1C
1s
17
1?
1w
b10000111 2
1o
18
06
1@
1>
1N
1v
0$"
1#"
0V
1p
b101101010 3
0n
b1011010100101111 -
0x
15
1=
0E
0M
1]
0e
1u
0%
1D
0T
0\
1d
1l
1'
b110100011 0
0%"
1+"
0/"
01"
b111000111 /
0*"
0,"
10"
12"
b1101000110100001 "
b1110001110001110 !
#90
0K
0[
0G
0W
0>
1F
0Y
0w
0;
0C
0S
0s
0!"
07
0?
0O
b0 2
0o
0A
0I
1V
0^
1$"
0#"
0z
08
0@
0B
0J
0R
1N
0p
b110111001101110 -
b11011100 3
1n
05
0=
1E
1U
0]
0u
1%
1(
04
0<
0D
1L
0l
0t
0""
b10010100 0
1%"
0'"
0+"
1-"
11"
04"
b1001000 /
1}
1("
0."
02"
13"
b100101001001010 "
b10010000100100 !
#100
1w
16
1>
b111111111 3
1^
0v
1x
b1111111111111111 -
1z
0E
0U
0m
14
1<
1D
1T
1\
1l
1t
0'
0(
b0 0
0%"
1+"
0-"
01"
b111111111 /
1&"
1*"
1,"
1."
12"
b1 "
b1111111111111111 !
