HERLOA/k6/HERLOAk6_waveform.vcd
$date
	Mon Nov 18 21:54:09 2024
$end
$version
	Icarus Verilog
$end
$timescale
	1s
$end
$scope module HERLOA_tb $end
$scope module uut $end
$var wire 16 ! A [15:0] $end
$var wire 16 " B [15:0] $end
$var wire 1 # cout $end
$var wire 1 $ n_9 $end
$var wire 1 % n_8 $end
$var wire 1 & n_7 $end
$var wire 1 ' n_6 $end
$var wire 1 ( n_5 $end
$var wire 1 ) n_4 $end
$var wire 1 * n_3 $end
$var wire 1 + n_2 $end
$var wire 1 , n_11 $end
$var wire 1 - n_10 $end
$var wire 1 . n_1 $end
$var wire 1 / n_0 $end
$var wire 16 0 S [15:0] $end
$var wire 1 1 Cin $end
$scope module RCA1 $end
$var wire 1 # Co $end
$var wire 6 2 X [5:0] $end
$var wire 6 3 Y [5:0] $end
$var wire 1 4 n_0 $end
$var wire 5 5 w [4:0] $end
$var wire 6 6 S [5:0] $end
$var wire 1 1 Ci $end
$scope module adder_stage[0].genblk1.FA $end
$var wire 1 7 X $end
$var wire 1 8 Y $end
$var wire 1 9 S $end
$var wire 1 : Co $end
$var wire 1 1 Ci $end
$scope module g66__2398 $end
$var wire 1 7 A $end
$var wire 1 8 B $end
$var wire 1 : CO $end
$var wire 1 9 S $end
$var wire 1 ; \n$1 $end
$var wire 1 < \n$2 $end
$var wire 1 = \n$3 $end
$var wire 1 1 CI $end
$upscope $end
$upscope $end
$scope module adder_stage[1].genblk1.FA $end
$var wire 1 > Ci $end
$var wire 1 ? X $end
$var wire 1 @ Y $end
$var wire 1 A S $end
$var wire 1 B Co $end
$scope module g66__5107 $end
$var wire 1 ? A $end
$var wire 1 @ B $end
$var wire 1 > CI $end
$var wire 1 B CO $end
$var wire 1 A S $end
$var wire 1 C \n$1 $end
$var wire 1 D \n$2 $end
$var wire 1 E \n$3 $end
$upscope $end
$upscope $end
$scope module adder_stage[2].genblk1.FA $end
$var wire 1 F Ci $end
$var wire 1 G X $end
$var wire 1 H Y $end
$var wire 1 I S $end
$var wire 1 J Co $end
$scope module g66__6260 $end
$var wire 1 G A $end
$var wire 1 H B $end
$var wire 1 F CI $end
$var wire 1 J CO $end
$var wire 1 I S $end
$var wire 1 K \n$1 $end
$var wire 1 L \n$2 $end
$var wire 1 M \n$3 $end
$upscope $end
$upscope $end
$scope module adder_stage[3].genblk1.FA $end
$var wire 1 N Ci $end
$var wire 1 O X $end
$var wire 1 P Y $end
$var wire 1 Q S $end
$var wire 1 R Co $end
$scope module g66__4319 $end
$var wire 1 O A $end
$var wire 1 P B $end
$var wire 1 N CI $end
$var wire 1 R CO $end
$var wire 1 Q S $end
$var wire 1 S \n$1 $end
$var wire 1 T \n$2 $end
$var wire 1 U \n$3 $end
$upscope $end
$upscope $end
$scope module adder_stage[4].genblk1.FA $end
$var wire 1 V Ci $end
$var wire 1 W X $end
$var wire 1 X Y $end
$var wire 1 Y S $end
$var wire 1 Z Co $end
$scope module g66__8428 $end
$var wire 1 W A $end
$var wire 1 X B $end
$var wire 1 V CI $end
$var wire 1 Z CO $end
$var wire 1 Y S $end
$var wire 1 [ \n$1 $end
$var wire 1 \ \n$2 $end
$var wire 1 ] \n$3 $end
$upscope $end
$upscope $end
$scope module adder_stage[5].genblk1.FA $end
$var wire 1 ^ Ci $end
$var wire 1 4 Co $end
$var wire 1 _ X $end
$var wire 1 ` Y $end
$var wire 1 a n_0 $end
$var wire 1 b S $end
$scope module g37__5526 $end
$var wire 1 ^ B $end
$var wire 1 b Y $end
$var wire 1 a A $end
$upscope $end
$scope module g38__6783 $end
$var wire 1 ` A $end
$var wire 1 _ B $end
$var wire 1 a Y $end
$upscope $end
$upscope $end
$upscope $end
$scope module g245__3680 $end
$var wire 1 c Y $end
$var wire 1 , B $end
$var wire 1 & A $end
$upscope $end
$scope module g246__1617 $end
$var wire 1 d Y $end
$var wire 1 , B $end
$var wire 1 . A $end
$upscope $end
$scope module g247__2802 $end
$var wire 1 e Y $end
$var wire 1 , B $end
$var wire 1 ' A $end
$upscope $end
$scope module g248__1705 $end
$var wire 1 f Y $end
$var wire 1 , B $end
$var wire 1 % A $end
$upscope $end
$scope module g249__5122 $end
$var wire 1 g Y $end
$var wire 1 , B $end
$var wire 1 * A $end
$upscope $end
$scope module g250__8246 $end
$var wire 1 h Y $end
$var wire 1 , B $end
$var wire 1 + A $end
$upscope $end
$scope module g251__7098 $end
$var wire 1 i Y $end
$var wire 1 , B $end
$var wire 1 ( A $end
$upscope $end
$scope module g252__6131 $end
$var wire 1 j Y $end
$var wire 1 , B $end
$var wire 1 / A $end
$upscope $end
$scope module g253__1881 $end
$var wire 1 k A0N $end
$var wire 1 l Y $end
$var wire 1 m \n$1 $end
$var wire 1 n \n$2 $end
$var wire 1 o \n$3 $end
$var wire 1 $ B0 $end
$var wire 1 - A1N $end
$upscope $end
$scope module g254__5115 $end
$var wire 1 , Y $end
$var wire 1 - B $end
$var wire 1 ) A $end
$upscope $end
$scope module g255__7482 $end
$var wire 1 p Y $end
$var wire 1 - B $end
$var wire 1 ) A $end
$upscope $end
$scope module g256__4733 $end
$var wire 1 q A $end
$var wire 1 r B $end
$var wire 1 1 CO $end
$var wire 1 - S $end
$upscope $end
$scope module g257__6161 $end
$var wire 1 s A $end
$var wire 1 t B $end
$var wire 1 $ Y $end
$upscope $end
$scope module g258__9315 $end
$var wire 1 u A $end
$var wire 1 v B $end
$var wire 1 % Y $end
$upscope $end
$scope module g259__9945 $end
$var wire 1 w A $end
$var wire 1 x B $end
$var wire 1 & Y $end
$upscope $end
$scope module g260__2883 $end
$var wire 1 y A $end
$var wire 1 z B $end
$var wire 1 ' Y $end
$upscope $end
$scope module g261__2346 $end
$var wire 1 { A $end
$var wire 1 | B $end
$var wire 1 ( Y $end
$upscope $end
$scope module g262__1666 $end
$var wire 1 } A $end
$var wire 1 ~ B $end
$var wire 1 * Y $end
$upscope $end
$scope module g263__7410 $end
$var wire 1 !" A $end
$var wire 1 "" B $end
$var wire 1 + Y $end
$upscope $end
$scope module g264__6417 $end
$var wire 1 #" A $end
$var wire 1 $" B $end
$var wire 1 . Y $end
$upscope $end
$scope module g265__5477 $end
$var wire 1 %" A $end
$var wire 1 &" B $end
$var wire 1 / Y $end
$upscope $end
$scope module g266__2398 $end
$var wire 1 '" A $end
$var wire 1 (" B $end
$var wire 1 ) Y $end
$upscope $end
$upscope $end
$upscope $end
$enddefinitions $end
#0
$dumpvars
0("
0'"
0&"
0%"
0$"
0#"
0""
0!"
0~
0}
0|
0{
0z
0y
0x
0w
0v
0u
0t
0s
0r
0q
0p
1o
1n
1m
0l
0k
0j
0i
0h
0g
0f
0e
0d
0c
0b
1a
0`
0_
0^
0]
0\
0[
0Z
0Y
0X
0W
0V
0U
0T
0S
0R
0Q
0P
0O
0N
0M
0L
0K
0J
0I
0H
0G
0F
0E
0D
0C
0B
0A
0@
0?
0>
0=
0<
0;
0:
09
08
07
b0 6
b0 5
z4
b0 3
b0 2
01
b0 0
1/
1.
0-
1,
1+
1*
0)
1(
1'
1&
1%
1$
z#
b0 "
b0 !
$end
#10
1f
1c
1e
1i
1g
1h
1d
b11111111 0
1j
0%
0&
0'
0(
0*
0+
0.
0/
1u
1w
1y
1{
1}
1!"
1#"
1%"
1v
1x
1z
1|
1~
1""
1$"
1&"
b11111111 "
b11111111 !
#20
1L
1M
1I
1T
1U
1Q
1\
1]
1Y
1b
1D
1E
1A
1F
1N
1V
1^
1>
1B
1J
1R
1Z
b11111 5
1:
1;
1C
1K
1S
1[
b111111 6
19
1=
1<
0f
0c
0e
0i
0g
0h
0d
0j
b1111111000000000 0
1p
18
1@
1H
1P
1X
1`
0n
17
1?
1G
1O
1W
1_
11
1%
1&
1'
1(
1*
1+
1.
1/
1)
b111111 3
1k
1q
1s
0u
0w
0y
0{
0}
0!"
0#"
0%"
1("
b111111 2
1r
1t
0v
0x
0z
0|
0~
0""
0$"
0&"
1'"
b1111111100000000 "
b1111111100000000 !
#30
0^
0Z
0\
0V
0R
0U
0N
0J
0L
0F
0B
0E
0>
1b
0m
b0 5
0:
0C
0D
1A
0S
0T
1Q
0a
0<
0o
1f
1h
1d
1j
0;
0=
0K
0M
1I
0[
0]
b111111 6
1Y
1l
1c
1e
1i
b1111111111111111 0
1g
0@
0P
0`
01
1-
0%
0+
0.
0/
07
0G
0W
0$
0&
0'
0(
0*
0)
b10101 3
0q
1u
1!"
1#"
1%"
b101010 2
0t
1x
1z
1|
1~
0'"
b101010101010101 "
b1010101010101010 !
#40
1L
1M
1\
1]
1D
1E
1T
1U
1F
1V
0l
1>
1N
1^
1B
1R
1b
1m
1:
1J
b11111 5
1Z
1C
1A
1S
1Q
1a
1<
1o
1;
1=
1K
1I
1[
b1111111011111111 0
b111111 6
1Y
1@
1P
1`
11
0-
17
1G
1W
1$
1)
b111111 3
1q
1w
1y
1{
1}
b111111 2
1t
1v
1""
1$"
1&"
1'"
b1111111111111111 "
b1111111111111111 !
#50
0I
0Q
0Y
0b
0A
0F
0N
0V
0^
0>
0B
0J
0R
0Z
b0 5
0:
0D
0L
0T
0\
0;
0C
0E
0K
0M
0S
0U
0[
0]
b0 6
09
0=
0<
0f
0c
0e
0i
0g
0d
0j
b1 0
0p
08
0@
0H
0P
0X
0`
1n
07
0?
0G
0O
0W
0_
01
1%
1&
1'
1(
1*
1.
1/
0)
b0 3
0k
0q
0s
0u
0w
0y
0{
0}
0#"
0%"
0("
b0 2
0r
0t
0v
0x
0z
0|
0~
0$"
0&"
0'"
b1 "
b1 !
#60
1b
19
1A
1Y
0a
1f
1c
1e
1d
1I
b111111 6
1Q
1p
0o
1l
1i
1g
b1111111111111111 0
1j
18
1@
1X
1`
0%
0&
0'
0.
1G
1O
1-
0$
0(
0*
0/
b110011 3
1u
1w
1y
0!"
1#"
b1100 2
1r
1t
1|
1~
1&"
1'"
b1100110011001100 "
b11001100110011 !
#70
0@
1P
0`
1?
0O
1_
b11001 3
1q
0w
0y
1{
1}
b100110 2
0r
1x
1z
0|
0~
b110011001100110 "
b1001100110011001 !
#80
1^
1b
b10000 5
1Z
09
1a
0m
1l
0,
0A
1[
b101100 6
0Y
b1011001111111111 0
1j
08
1H
0P
1`
0n
1$
1.
1)
0?
0G
1O
1W
1/
b110100 3
1k
0q
1s
0u
1y
0{
1!"
0#"
1("
b111000 2
1r
1v
1|
0""
0&"
b1101000110100001 "
b1110001110001110 !
#90
0b
0^
0l
b0 5
0Z
0j
1A
0I
1m
0h
19
0[
b11011 6
1Y
b110111001101110 0
0e
1,
1@
0H
0`
1n
1+
0.
17
0W
0_
1'
0)
b10010 3
0k
1q
0s
1w
0y
1{
0}
0!"
1#"
0("
b1001 2
0r
0t
0x
0z
0|
1~
0'"
b100101001001010 "
b10010000100100 !
#100
1b
b111111 6
1I
0a
1l
1e
1h
b1111111111111111 0
1j
0@
0X
1?
1G
1W
1_
0$
0'
0+
0/
b0 3
0q
0w
0{
1!"
0#"
b111111 2
1r
1t
1x
1z
1|
1""
1$"
1&"
1'"
b1 "
b1111111111111111 !
